<svg xmlns="http://www.w3.org/2000/svg" width="25" height="27" viewBox="0 0 25 27">
    <g fill="none" fill-rule="evenodd" stroke="#0097A9">
        <path fill-rule="nonzero" stroke-width="2" d="M22.996 8.973c-1.562-5.722-7.677-9.115-13.66-7.62C3.354 2.87-.194 8.72 1.368 14.416c.741 2.709 2.515 4.886 4.792 6.279L3.22 25l11.807-2.962c5.956-1.494 9.53-7.343 7.968-13.065z"/>
        <path d="M16.429 10.429h-3.215V7.714a1.214 1.214 0 1 0-2.428 0v2.715H7.57a1.071 1.071 0 1 0 0 2.142h3.215v2.715a1.214 1.214 0 1 0 2.428 0V12.57h3.215a1.071 1.071 0 1 0 0-2.142z"/>
    </g>
</svg>
