<svg xmlns="http://www.w3.org/2000/svg" width="20" height="20" viewBox="0 0 20 20">
    <path fill="#75B52F" fill-rule="evenodd" d="M12.159 5.85c-.459 0-.841.361-.841.794 0 2.6-2.142 4.695-4.818 4.695-2.676 0-4.818-2.095-4.818-4.695S3.824 1.95 6.5 1.95c1.147 0 2.37.361 3.212 1.011h-.918c-.459 0-.841.361-.841.795 0 .433.382.794.841.794h3.824V.794C12.694.361 12.312 0 11.853 0s-.841.361-.841.794v1.012A7.48 7.48 0 0 0 6.5.289C2.906.289 0 3.106 0 6.644 0 10.184 2.906 13 6.5 13S13 10.183 13 6.644c0-.433-.382-.794-.841-.794z"/>
</svg>
