<svg width="270" height="300" xmlns="http://www.w3.org/2000/svg">

 <g>
  <title>background</title>
  <rect fill="none" id="canvas_background" height="302" width="272" y="-1" x="-1"/>
 </g>
 <g>
  <title>Layer 1</title>
  <g stroke="#0097A9" id="svg_1" fill-rule="evenodd" fill="none">
   <path stroke="null" id="svg_2" d="m253.169349,102.193913c-17.138776,-64.373273 -84.234559,-102.544981 -149.881995,-85.726029c-65.636464,17.066455 -104.566282,82.879745 -87.427506,146.960514c8.130495,30.476616 27.595404,54.96816 52.579394,70.639598l-32.258643,48.431831l129.550272,-33.3229c65.351183,-16.807702 104.566282,-82.609742 87.427506,-146.983014l0.010972,0z" stroke-width="20" fill-rule="nonzero"/>
   <rect stroke="null" height="24.965141" rx="10" id="svg_4" width="118.029255" y="122.517438" x="75.985375" stroke-width="5" fill="#0097a9"/>
  </g>
 </g>
</svg>