<svg xmlns="http://www.w3.org/2000/svg" width="22" height="19" viewBox="0 0 22 19">
    <g fill="#D60F36" fill-rule="nonzero">
        <path d="M14.699 2.137C13.869.85 12.467.19 11.096.19s-2.742.66-3.603 1.948L.988 12.1c-1.817 2.797.224 6.506 3.603 6.506h13.04c3.38 0 5.421-3.677 3.604-6.506l-6.536-9.963zm5.26 13.514a2.704 2.704 0 0 1-2.359 1.383H4.591c-.988 0-1.88-.503-2.36-1.383a2.58 2.58 0 0 1 .097-2.702l6.504-9.995a2.653 2.653 0 0 1 2.264-1.225c.924 0 1.753.44 2.263 1.225l6.505 9.995c.542.848.574 1.854.095 2.702z"/>
        <path d="M11.319 12.603l.319-6.569H10.33l.32 6.569zM10.968 13.609c-.51 0-.765.282-.765.848 0 .283.064.503.223.629.128.125.319.188.542.188.255 0 .415-.063.574-.22.16-.157.191-.345.191-.628 0-.283-.063-.472-.191-.629-.16-.094-.319-.188-.574-.188z"/>
    </g>
</svg>
