[
    {
        "id": "1",
        "name": "inspection one",
        "version": 3,
        "date": "Jan 30, 2018 10:15:12",
        "modifiedBy": "Adam smith"
      },
      {
        "id": "2",
        "name": "inspection two",
        "version": 2,
        "date": "Jan 30, 2018 10:15:12",
        "modifiedBy": "Adam "
      },
      {
        "id": "3",
        "name": "inspection three",
        "version": 5,
        "date": "Jan 30, 2018 10:15:12",
        "modifiedBy": "John smith"
        
      }
]