[
    {
        "id": 1,
        "firstName": "John",
        "lastName": "Doe",
        "role": "Senior Field Manager",
        "imageUrl": "../../../assets/images/person-icon.png"
    },
    {
        "id": 2,
        "firstName": "Sarah",
        "lastName": "Doe",
        "role": "Senior Field Manager",
        "imageUrl": "../../../assets/images/person-icon.png"
    },
    {
        "id": 3,
        "firstName": "Daniel",
        "lastName": "Doe",
        "role": "Senior Field Manager",
        "imageUrl": "../../../assets/images/person-icon.png"
    },
    {
        "id": 4,
        "firstName": "Daniel",
        "lastName": "Doe",
        "role": "Senior Field Manager",
        "imageUrl": "../../../assets/images/person-icon.png"
    },
    {
        "id": 5,
        "firstName": "John",
        "lastName": "Doe",
        "role": "Senior Field Manager",
        "imageUrl": "../../../assets/images/person-icon.png"
    },
    {
        "id": 6,
        "firstName": "Sarah",
        "lastName": "Doe",
        "role": "Senior Field Manager",
        "imageUrl": "../../../assets/images/person-icon.png"
    },
    {
        "id": 7,
        "firstName": "Daniel",
        "lastName": "Doe",
        "role": "Senior Field Manager",
        "imageUrl": "../../../assets/images/person-icon.png"
    },
    {
        "id": 8,
        "firstName": "Daniel",
        "lastName": "Doe",
        "role": "Senior Field Manager",
        "imageUrl": "../../../assets/images/person-icon.png"
    },
    {
        "id": 9,
        "firstName": "John",
        "lastName": "Doe",
        "role": "Senior Field Manager",
        "imageUrl": "../../../assets/images/person-icon.png"
    },
    {
        "id": 10,
        "firstName": "Sarah",
        "lastName": "Doe",
        "role": "Senior Field Manager",
        "imageUrl": "../../../assets/images/person-icon.png"
    },
    {
        "id": 11,
        "firstName": "Daniel",
        "lastName": "Doe",
        "role": "Senior Field Manager",
        "imageUrl": "../../../assets/images/person-icon.png"
    },
    {
        "id": 12,
        "firstName": "Daniel",
        "lastName": "Doe",
        "role": "Senior Field Manager",
        "imageUrl": "../../../assets/images/person-icon.png"
    },
    {
        "id": 13,
        "firstName": "John",
        "lastName": "Doe",
        "role": "Senior Field Manager",
        "imageUrl": "../../../assets/images/person-icon.png"
    },
    {
        "id": 14,
        "firstName": "Sarah",
        "lastName": "Doe",
        "role": "Senior Field Manager",
        "imageUrl": "../../../assets/images/person-icon.png"
    },
    {
        "id": 15,
        "firstName": "Daniel",
        "lastName": "Doe",
        "role": "Senior Field Manager",
        "imageUrl": "../../../assets/images/person-icon.png"
    },
    {
        "id": 16,
        "firstName": "Daniel",
        "lastName": "Doe",
        "role": "Senior Field Manager",
        "imageUrl": "../../../assets/images/person-icon.png"
    }
]